	healthy	infected	invisible_transmitters	transmitters	cured	dead	quarantined
0	147627	7	50	0	0	0	0
1	147622	12	50	0	0	0	0
2	147620	14	50	0	0	0	0
3	147616	18	50	0	0	0	0
4	147609	25	50	0	0	0	0
5	147602	32	50	0	0	0	0
6	147600	34	50	0	0	0	0
7	147596	38	50	0	0	0	0
8	147595	39	50	0	0	0	0
9	147591	43	50	0	0	0	0
10	147590	44	50	0	0	0	0
11	147583	51	50	0	0	0	1
12	147577	57	50	0	0	0	1
13	147576	58	50	0	0	0	1
14	147568	66	50	0	0	0	2
15	147563	71	50	0	0	0	2
16	147560	74	50	0	0	0	2
17	147559	75	50	0	0	0	3
18	147557	77	50	0	0	0	3
19	147556	78	50	0	0	0	4
20	147550	84	50	0	0	0	5
21	147549	78	7	50	0	0	26
22	147545	77	12	50	0	0	46
23	147540	80	14	50	0	0	58
24	147537	79	18	50	0	0	60
25	147536	73	25	50	0	0	60
26	147534	68	32	50	0	0	60
27	147529	71	34	50	0	0	61
28	147524	72	38	50	0	0	61
29	147521	74	39	50	0	0	61
30	147516	75	43	50	0	0	61
31	147510	80	44	50	0	0	62
32	147509	74	51	50	0	0	62
33	147504	73	57	50	0	0	62
34	147499	77	58	50	0	0	62
35	147495	73	66	50	0	0	63
36	147494	69	71	50	0	0	63
37	147488	72	74	50	0	0	63
38	147482	77	75	50	0	0	63
39	147473	84	77	50	0	0	63
40	147469	87	78	50	0	0	63
41	147465	85	84	50	0	0	63
42	147463	86	78	7	50	0	19
43	147456	89	77	12	50	0	24
44	147453	87	80	14	50	0	26
45	147450	87	79	18	50	0	30
46	147446	90	73	25	50	0	37
47	147443	91	68	32	50	0	43
48	147435	94	71	34	50	0	45
49	147432	92	72	38	50	0	50
50	147428	93	74	39	50	0	52
51	147423	93	75	43	50	0	56
52	147414	96	80	44	50	0	57
53	147411	98	74	51	50	0	65
54	147409	95	73	57	50	0	72
55	147404	95	77	58	50	0	74
56	147402	93	73	66	50	0	81
57	147398	96	69	71	50	0	85
58	147394	94	72	74	50	0	87
59	147388	94	77	75	50	0	90
60	147383	90	84	77	50	0	92
61	147382	87	87	78	50	0	92
62	147376	89	85	84	50	0	97
63	147367	96	86	78	57	0	91
64	147363	93	89	77	62	0	91
65	147359	94	87	80	64	0	95
66	147351	99	87	79	68	0	94
67	147345	101	90	73	75	0	89
68	147341	102	91	68	82	0	85
69	147339	96	94	71	84	0	88
70	147332	100	92	72	88	0	88
71	147327	101	93	74	89	0	90
72	147322	101	93	75	93	0	92
73	147313	101	96	80	94	0	97
74	147311	100	98	74	101	0	93
75	147302	107	95	73	107	0	93
76	147298	106	95	77	108	0	97
77	147294	108	93	73	116	0	94
78	147290	108	96	69	121	0	90
79	147287	107	94	72	124	0	94
80	147279	109	94	77	125	0	99
81	147276	107	90	84	127	0	100
82	147267	115	87	87	128	0	100
83	147263	113	89	85	134	0	100
84	147260	107	96	86	135	0	100
85	147258	105	93	89	139	0	100
86	147257	102	94	87	144	0	100
87	147251	100	99	87	147	0	100
88	147249	96	101	90	148	0	100
89	147243	98	102	91	150	0	100
90	147239	100	96	94	155	0	100
91	147231	101	100	92	160	0	100
92	147228	99	101	93	163	0	100
93	147223	99	101	93	168	0	100
94	147219	94	101	96	174	0	100
95	147215	96	100	98	175	0	100
96	147212	90	107	95	180	0	100
97	147203	95	106	95	185	0	100
98	147196	98	108	93	189	0	100
99	147191	99	108	96	190	0	100
100	147189	98	107	94	196	0	100
101	147184	95	109	94	202	0	100
102	147181	95	107	90	211	0	100
103	147173	94	115	87	215	0	100
104	147164	99	113	89	219	0	100
105	147161	99	107	96	221	0	100
106	147157	101	105	93	228	0	100
107	147149	108	102	94	231	0	100
108	147139	112	100	99	234	0	100
109	147134	115	96	101	238	0	100
110	147128	115	98	102	241	0	100
111	147123	116	100	96	249	0	100
112	147120	111	101	100	252	0	100
113	147117	111	99	101	256	0	100
114	147113	110	99	101	261	0	100
115	147108	111	94	101	270	0	100
116	147101	114	96	100	273	0	100
117	147096	116	90	107	275	0	100
118	147093	110	95	106	280	0	100
119	147090	106	98	108	282	0	100
120	147084	107	99	108	286	0	100
121	147078	111	98	107	290	0	100
122	147076	108	95	109	296	0	100
123	147067	114	95	107	301	0	100
124	147062	111	94	115	302	0	100
125	147057	107	99	113	308	0	100
126	147051	110	99	107	317	0	100
127	147049	108	101	105	321	0	100
128	147041	108	108	102	325	0	100
129	147040	99	112	100	333	0	100
130	147036	98	115	96	339	0	100
131	147032	96	115	98	343	0	100
132	147026	97	116	100	345	0	100
133	147019	101	111	101	352	0	100
134	147011	106	111	99	357	0	100
135	147004	109	110	99	362	0	100
136	146995	113	111	94	371	0	100
137	146990	111	114	96	373	0	100
138	146984	112	116	90	382	0	100
139	146977	116	110	95	386	0	100
140	146970	120	106	98	390	0	100
141	146966	118	107	99	394	0	100
142	146960	118	111	98	397	0	100
143	146957	119	108	95	405	0	100
144	146952	115	114	95	408	0	100
145	146950	112	111	94	417	0	100
146	146947	110	107	99	421	0	100
147	146940	111	110	99	424	0	100
148	146935	114	108	101	426	0	100
149	146931	110	108	108	427	0	100
150	146926	114	99	112	433	0	100
151	146922	114	98	115	435	0	100
152	146909	123	96	115	441	0	100
153	146902	124	97	116	445	0	100
154	146896	123	101	111	453	0	100
155	146889	122	106	111	456	0	100
156	146880	124	109	110	461	0	100
157	146872	123	113	111	465	0	100
158	146865	125	111	114	469	0	100
159	146856	128	112	116	472	0	100
160	146844	133	116	110	481	0	100
161	146836	134	120	106	488	0	100
162	146830	136	118	107	493	0	100
163	146820	140	118	111	495	0	100
164	146814	143	119	108	500	0	100
165	146808	144	115	114	503	0	100
166	146801	149	112	111	511	0	100
167	146799	148	110	107	520	0	100
168	146791	149	111	110	523	0	100
169	146786	149	114	108	527	0	100
170	146776	155	110	108	535	0	100
171	146766	160	114	99	545	0	100
172	146759	163	114	98	550	0	100
173	146752	157	123	96	556	0	100
174	146744	158	124	97	561	0	100
175	146739	157	123	101	564	0	100
176	146735	154	122	106	567	0	100
177	146733	147	124	109	571	0	100
178	146726	146	123	113	576	0	100
179	146718	147	125	111	583	0	100
180	146703	153	128	112	588	0	100
181	146694	150	133	116	591	0	100
182	146682	154	134	120	594	0	100
183	146668	162	136	118	600	0	100
184	146664	156	140	118	606	0	100
185	146656	158	143	119	608	0	100
186	146652	156	144	115	617	0	100
187	146641	160	149	112	622	0	100
188	146637	162	148	110	627	0	100
189	146629	162	149	111	633	0	100
190	146623	163	149	114	635	0	100
191	146617	159	155	110	643	0	100
192	146609	157	160	114	644	0	100
193	146604	155	163	114	648	0	100
194	146601	151	157	123	652	0	100
195	146592	152	158	124	658	0	100
196	146584	155	157	123	665	0	100
197	146579	156	154	122	673	0	100
198	146575	158	147	124	680	0	100
199	146571	155	146	123	689	0	100
